// WARNING: This file is machine generated by fidlgen.

#pragma once

#include <fidl/fdf/cpp/fidl.h>
#include <fidl/test.handles/cpp/natural_messaging.h>
#include <fidl/test.handles/cpp/natural_types.h>
#include <fidl/test.handles/cpp/wire.h>
