// WARNING: This file is machine generated by fidlgen.

#pragma once

#include <fidl/test.transitivedependenciescompose/cpp/markers.h>
#include <fidl/test.transitivedependenciescompose/cpp/wire_types.h>
#include <lib/fidl/llcpp/wire_messaging.h>

#ifdef __Fuchsia__

#include <lib/fidl/llcpp/client.h>
#include <lib/fidl/llcpp/connect_service.h>
#include <lib/fidl/llcpp/server.h>
#include <lib/fidl/llcpp/service_handler_interface.h>
#include <lib/fidl/llcpp/sync_call.h>

#endif  // __Fuchsia__

#include <fidl/test.bottom/cpp/wire_messaging.h>
#include <fidl/test.middle/cpp/wire_messaging.h>

namespace test_transitivedependenciescompose {
class Top;

__LOCAL extern "C" const fidl_type_t test_bottom_BottomGetFooTopResponseTable;
}  // namespace test_transitivedependenciescompose
template <>
struct ::fidl::internal::WireOrdinal<
    ::test_transitivedependenciescompose::Top::GetFoo>
    final {
  static constexpr uint64_t value = 2618685789258237543lu;
};

namespace test_transitivedependenciescompose {
}  // namespace test_transitivedependenciescompose
#ifdef __Fuchsia__

template <>
struct ::fidl::internal::ProtocolDetails<
    ::test_transitivedependenciescompose::Top> {};
#endif  // __Fuchsia__

#ifdef __Fuchsia__

template <>
struct ::fidl::internal::WireServerDispatcher<
    ::test_transitivedependenciescompose::Top>
    final {
  WireServerDispatcher() = delete;
  static ::fidl::DispatchResult TryDispatch(
      ::fidl::WireServer<::test_transitivedependenciescompose::Top>* impl,
      ::fidl::IncomingMessage& msg,
      internal::IncomingTransportContext transport_context,
      ::fidl::Transaction* txn);
  static void Dispatch(
      ::fidl::WireServer<::test_transitivedependenciescompose::Top>* impl,
      ::fidl::IncomingMessage&& msg,
      internal::IncomingTransportContext transport_context,
      ::fidl::Transaction* txn);

 private:
  static const ::fidl::internal::MethodEntry entries_[];
  static const ::fidl::internal::MethodEntry* entries_end_;
};
#endif  // __Fuchsia__

template <>
struct ::fidl::WireRequest<::test_transitivedependenciescompose::Top::GetFoo>
    final {
  WireRequest() = default;
  using ResponseType =
      ::fidl::WireResponse<::test_transitivedependenciescompose::Top::GetFoo>;
};

template <>
struct ::fidl::internal::TransactionalRequest<
    ::test_transitivedependenciescompose::Top::GetFoo>
    final {
  FIDL_ALIGNDECL
  fidl_message_header_t header;

  TransactionalRequest() { _InitHeader(); }
  using ResponseType = ::fidl::internal::TransactionalResponse<
      ::test_transitivedependenciescompose::Top::GetFoo>;

 private:
  void _InitHeader();
};

template <>
struct ::fidl::WireResponse<::test_transitivedependenciescompose::Top::GetFoo>
    final : public ::test_bottom::wire::BottomGetFooTopResponse {
  explicit WireResponse(const ::test_bottom::wire::Foo& foo)
      : ::test_bottom::wire::BottomGetFooTopResponse{.foo = std::move(foo)} {}
  WireResponse() = default;
};

template <>
struct ::fidl::internal::TransactionalResponse<
    ::test_transitivedependenciescompose::Top::GetFoo>
    final {
  FIDL_ALIGNDECL
  fidl_message_header_t header;

  ::fidl::WireResponse<::test_transitivedependenciescompose::Top::GetFoo> body;
  explicit TransactionalResponse(const ::test_bottom::wire::Foo& foo)
      : body(::fidl::WireResponse<
             ::test_transitivedependenciescompose::Top::GetFoo>(foo)) {
    _InitHeader();
  }
  TransactionalResponse() { _InitHeader(); }

 private:
  void _InitHeader();
};

#ifdef __Fuchsia__

template <>
struct ::fidl::internal::WireMethodTypes<
    ::test_transitivedependenciescompose::Top::GetFoo> {
  using Completer = fidl::Completer<::fidl::internal::WireCompleterBase<
      ::test_transitivedependenciescompose::Top::GetFoo>>;

  using Thenable = ::fidl::internal::WireThenableImpl<
      ::test_transitivedependenciescompose::Top::GetFoo,
      ::fidl::unstable::OwnedEncodedMessage<
          ::fidl::internal::TransactionalRequest<
              ::test_transitivedependenciescompose::Top::GetFoo>,
          ::fidl::internal::ChannelTransport>>;

  using BufferThenable = ::fidl::internal::WireThenableImpl<
      ::test_transitivedependenciescompose::Top::GetFoo,
      ::fidl::unstable::UnownedEncodedMessage<
          ::fidl::internal::TransactionalRequest<
              ::test_transitivedependenciescompose::Top::GetFoo>,
          ::fidl::internal::ChannelTransport>>;
};

#endif  // __Fuchsia__

namespace fidl {

template <>
struct IsFidlType<::fidl::internal::TransactionalRequest<
    ::test_transitivedependenciescompose::Top::GetFoo>>
    : public std::true_type {};
template <>
struct IsFidlType<
    ::fidl::WireRequest<::test_transitivedependenciescompose::Top::GetFoo>>
    : public std::true_type {};
template <>
struct IsFidlTransactionalMessage<::fidl::internal::TransactionalRequest<
    ::test_transitivedependenciescompose::Top::GetFoo>>
    : public std::true_type {};
template <>
struct IsFidlTransactionalMessage<
    ::fidl::WireRequest<::test_transitivedependenciescompose::Top::GetFoo>>
    : public std::false_type {};

template <>
struct TypeTraits<::fidl::internal::TransactionalRequest<
    ::test_transitivedependenciescompose::Top::GetFoo>> {
  static constexpr const fidl_type_t* kType = nullptr;
  static constexpr uint32_t kMaxNumHandles = 0;
  static constexpr uint32_t kPrimarySize =
      FIDL_ALIGN(0 + sizeof(fidl_message_header_t));
  static constexpr uint32_t kPrimarySizeV1 =
      FIDL_ALIGN(0 + sizeof(fidl_message_header_t));
  static constexpr uint32_t kMaxOutOfLine = 0;
  static constexpr uint32_t kMaxOutOfLineV1 = 0;
  static constexpr bool kHasFlexibleEnvelope = false;
  static constexpr bool kHasPointer = false;
  static constexpr ::fidl::internal::TransactionalMessageKind kMessageKind =
      ::fidl::internal::TransactionalMessageKind::kRequest;
};

static_assert(
    sizeof(::fidl::internal::TransactionalRequest<
           ::test_transitivedependenciescompose::Top::GetFoo>) ==
    TypeTraits<::fidl::internal::TransactionalRequest<
        ::test_transitivedependenciescompose::Top::GetFoo>>::kPrimarySize);
static_assert(offsetof(::fidl::internal::TransactionalRequest<
                           ::test_transitivedependenciescompose::Top::GetFoo>,
                       header) == 0);

template <>
struct TypeTraits<
    ::fidl::WireRequest<::test_transitivedependenciescompose::Top::GetFoo>> {
  static constexpr const fidl_type_t* kType = nullptr;
  static constexpr uint32_t kMaxNumHandles = 0;
  static constexpr uint32_t kPrimarySize = 0;
  static constexpr uint32_t kPrimarySizeV1 = 0;
  static constexpr uint32_t kMaxOutOfLine = 0;
  static constexpr uint32_t kMaxOutOfLineV1 = 0;
  static constexpr bool kHasFlexibleEnvelope = false;
  static constexpr bool kHasPointer = false;
  static constexpr ::fidl::internal::TransactionalMessageKind kMessageKind =
      ::fidl::internal::TransactionalMessageKind::kRequest;
};

template <>
struct IsFidlType<::fidl::internal::TransactionalResponse<
    ::test_transitivedependenciescompose::Top::GetFoo>>
    : public std::true_type {};
template <>
struct IsFidlType<
    ::fidl::WireResponse<::test_transitivedependenciescompose::Top::GetFoo>>
    : public std::true_type {};
template <>
struct IsFidlTransactionalMessage<::fidl::internal::TransactionalResponse<
    ::test_transitivedependenciescompose::Top::GetFoo>>
    : public std::true_type {};
template <>
struct IsFidlTransactionalMessage<
    ::fidl::WireResponse<::test_transitivedependenciescompose::Top::GetFoo>>
    : public std::false_type {};

template <>
struct TypeTraits<::fidl::internal::TransactionalResponse<
    ::test_transitivedependenciescompose::Top::GetFoo>> {
  static constexpr const fidl_type_t* kType =
      &::test_transitivedependenciescompose::
          test_bottom_BottomGetFooTopResponseTable;
  static constexpr uint32_t kMaxNumHandles = 0;
  static constexpr uint32_t kPrimarySize =
      FIDL_ALIGN(4 + sizeof(fidl_message_header_t));
  static constexpr uint32_t kPrimarySizeV1 =
      FIDL_ALIGN(4 + sizeof(fidl_message_header_t));
  static constexpr uint32_t kMaxOutOfLine = 0;
  static constexpr uint32_t kMaxOutOfLineV1 = 0;
  static constexpr bool kHasFlexibleEnvelope = false;
  static constexpr bool kHasPointer = false;
  static constexpr ::fidl::internal::TransactionalMessageKind kMessageKind =
      ::fidl::internal::TransactionalMessageKind::kResponse;
};

static_assert(
    sizeof(::fidl::internal::TransactionalResponse<
           ::test_transitivedependenciescompose::Top::GetFoo>) ==
    TypeTraits<::fidl::internal::TransactionalResponse<
        ::test_transitivedependenciescompose::Top::GetFoo>>::kPrimarySize);
static_assert(offsetof(::fidl::internal::TransactionalResponse<
                           ::test_transitivedependenciescompose::Top::GetFoo>,
                       header) == 0);
static_assert(offsetof(::fidl::internal::TransactionalResponse<
                           ::test_transitivedependenciescompose::Top::GetFoo>,
                       body) == sizeof(fidl_message_header_t));

template <>
struct TypeTraits<
    ::fidl::WireResponse<::test_transitivedependenciescompose::Top::GetFoo>> {
  static constexpr const fidl_type_t* kType =
      &::test_transitivedependenciescompose::
          test_bottom_BottomGetFooTopResponseTable;
  static constexpr uint32_t kMaxNumHandles = 0;
  static constexpr uint32_t kPrimarySize = 4;
  static constexpr uint32_t kPrimarySizeV1 = 4;
  static constexpr uint32_t kMaxOutOfLine = 0;
  static constexpr uint32_t kMaxOutOfLineV1 = 0;
  static constexpr bool kHasFlexibleEnvelope = false;
  static constexpr bool kHasPointer = false;
  static constexpr ::fidl::internal::TransactionalMessageKind kMessageKind =
      ::fidl::internal::TransactionalMessageKind::kResponse;
};
static_assert(
    sizeof(::fidl::WireResponse<
           ::test_transitivedependenciescompose::Top::GetFoo>) ==
    TypeTraits<::fidl::WireResponse<
        ::test_transitivedependenciescompose::Top::GetFoo>>::kPrimarySize);
static_assert(
    offsetof(
        ::fidl::WireResponse<::test_transitivedependenciescompose::Top::GetFoo>,
        foo) == 0);

}  // namespace fidl
namespace test_transitivedependenciescompose {
#ifdef __Fuchsia__
}  // namespace test_transitivedependenciescompose
template <>
class ::fidl::WireResult<::test_transitivedependenciescompose::Top::GetFoo>
    final : public ::fidl::Status {
 public:
  WireResult(::fidl::UnownedClientEnd<::test_transitivedependenciescompose::Top>
                 client,
             ::fidl::internal::TransactionalRequest<
                 ::test_transitivedependenciescompose::Top::GetFoo>* request);
  WireResult(::fidl::UnownedClientEnd<::test_transitivedependenciescompose::Top>
                 client,
             ::fidl::internal::TransactionalRequest<
                 ::test_transitivedependenciescompose::Top::GetFoo>* request,
             zx_time_t _deadline);
  explicit WireResult(const ::fidl::Status& result) : ::fidl::Status(result) {}
  WireResult(WireResult&&) = delete;
  WireResult(const WireResult&) = delete;
  WireResult* operator=(WireResult&&) = delete;
  WireResult* operator=(const WireResult&) = delete;
  ~WireResult() = default;
  ::fidl::WireResponse<::test_transitivedependenciescompose::Top::GetFoo>*
  Unwrap() {
    ZX_DEBUG_ASSERT(ok());
    return reinterpret_cast<::fidl::WireResponse<
        ::test_transitivedependenciescompose::Top::GetFoo>*>(
        bytes_.data() + sizeof(fidl_message_header_t));
  }
  const ::fidl::WireResponse<::test_transitivedependenciescompose::Top::GetFoo>*
  Unwrap() const {
    ZX_DEBUG_ASSERT(ok());
    return reinterpret_cast<const ::fidl::WireResponse<
        ::test_transitivedependenciescompose::Top::GetFoo>*>(
        bytes_.data() + sizeof(fidl_message_header_t));
  }

  ::fidl::WireResponse<::test_transitivedependenciescompose::Top::GetFoo>&
  value() {
    return *Unwrap();
  }
  const ::fidl::WireResponse<::test_transitivedependenciescompose::Top::GetFoo>&
  value() const {
    return *Unwrap();
  }

  ::fidl::WireResponse<::test_transitivedependenciescompose::Top::GetFoo>*
  operator->() {
    return &value();
  }
  const ::fidl::WireResponse<::test_transitivedependenciescompose::Top::GetFoo>*
  operator->() const {
    return &value();
  }

  ::fidl::WireResponse<::test_transitivedependenciescompose::Top::GetFoo>&
  operator*() {
    return value();
  }
  const ::fidl::WireResponse<::test_transitivedependenciescompose::Top::GetFoo>&
  operator*() const {
    return value();
  }

 private:
  ::fidl::internal::InlineMessageBuffer<24> bytes_;
};
template <>
class ::fidl::WireUnownedResult<
    ::test_transitivedependenciescompose::Top::GetFoo>
    final : public ::fidl::Status {
 public:
  explicit WireUnownedResult(
      ::fidl::UnownedClientEnd<::test_transitivedependenciescompose::Top>
          client_end,
      ::fidl::internal::AnyBufferAllocator& allocator,
      ::fidl::internal::TransactionalRequest<
          ::test_transitivedependenciescompose::Top::GetFoo>* request);
  explicit WireUnownedResult(
      ::fidl::internal::TransactionalResponse<
          ::test_transitivedependenciescompose::Top::GetFoo>* response)
      : bytes_(reinterpret_cast<uint8_t*>(response)) {}
  explicit WireUnownedResult(const ::fidl::Status& result)
      : ::fidl::Status(result) {}
  explicit WireUnownedResult(
      ::fidl::unstable::DecodedMessage<::fidl::internal::TransactionalResponse<
          ::test_transitivedependenciescompose::Top::GetFoo>>&& decoded,
      ::fidl::internal::IncomingTransportContext context)
      : ::fidl::Status(decoded) {
    if (decoded.ok()) {
      bytes_ = reinterpret_cast<uint8_t*>(decoded.PrimaryObject());
    } else {
      bytes_ = nullptr;
    }
    decoded.ReleasePrimaryObject();
  }
  WireUnownedResult(WireUnownedResult&&) = delete;
  WireUnownedResult(const WireUnownedResult&) = delete;
  WireUnownedResult* operator=(WireUnownedResult&&) = delete;
  WireUnownedResult* operator=(const WireUnownedResult&) = delete;
  ~WireUnownedResult() = default;
  ::fidl::WireResponse<::test_transitivedependenciescompose::Top::GetFoo>*
  Unwrap() {
    ZX_DEBUG_ASSERT(ok());
    return &(reinterpret_cast<::fidl::internal::TransactionalResponse<
                 ::test_transitivedependenciescompose::Top::GetFoo>*>(bytes_)
                 ->body);
  }
  const ::fidl::WireResponse<::test_transitivedependenciescompose::Top::GetFoo>*
  Unwrap() const {
    ZX_DEBUG_ASSERT(ok());
    return &(reinterpret_cast<const ::fidl::internal::TransactionalResponse<
                 ::test_transitivedependenciescompose::Top::GetFoo>*>(bytes_)
                 ->body);
  }

  ::fidl::WireResponse<::test_transitivedependenciescompose::Top::GetFoo>&
  value() {
    return *Unwrap();
  }
  const ::fidl::WireResponse<::test_transitivedependenciescompose::Top::GetFoo>&
  value() const {
    return *Unwrap();
  }

  ::fidl::WireResponse<::test_transitivedependenciescompose::Top::GetFoo>*
  operator->() {
    return &value();
  }
  const ::fidl::WireResponse<::test_transitivedependenciescompose::Top::GetFoo>*
  operator->() const {
    return &value();
  }

  ::fidl::WireResponse<::test_transitivedependenciescompose::Top::GetFoo>&
  operator*() {
    return value();
  }
  const ::fidl::WireResponse<::test_transitivedependenciescompose::Top::GetFoo>&
  operator*() const {
    return value();
  }

 private:
  uint8_t* bytes_;
};
template <>
class ::fidl::internal::WireEventHandlerInterface<
    ::test_transitivedependenciescompose::Top> {
 public:
  WireEventHandlerInterface() = default;
  virtual ~WireEventHandlerInterface() = default;
};

template <>
class ::fidl::WireAsyncEventHandler<::test_transitivedependenciescompose::Top>
    : public ::fidl::internal::WireEventHandlerInterface<
          ::test_transitivedependenciescompose::Top>,
      public ::fidl::internal::AsyncEventHandler {
 public:
  WireAsyncEventHandler() = default;
};

template <>
class ::fidl::WireSyncEventHandler<::test_transitivedependenciescompose::Top>
    : public ::fidl::internal::WireEventHandlerInterface<
          ::test_transitivedependenciescompose::Top> {
 public:
  WireSyncEventHandler() = default;

  // Method called when an unknown event is found. This methods gives the status
  // which, in this case, is returned by HandleOneEvent.
  virtual zx_status_t Unknown() = 0;

  // Handle all possible events defined in this protocol.
  // Blocks to consume exactly one message from the channel, then call the
  // corresponding virtual method.
  ::fidl::Status HandleOneEvent(
      ::fidl::UnownedClientEnd<::test_transitivedependenciescompose::Top>
          client_end);
};

template <>
class ::fidl::internal::WireEventDispatcher<
    ::test_transitivedependenciescompose::Top>
    final : public ::fidl::internal::IncomingEventDispatcher<
                ::fidl::WireAsyncEventHandler<
                    ::test_transitivedependenciescompose::Top>> {
 public:
  explicit WireEventDispatcher(
      ::fidl::WireAsyncEventHandler<::test_transitivedependenciescompose::Top>*
          event_handler)
      : IncomingEventDispatcher(event_handler) {}

 private:
  std::optional<::fidl::UnbindInfo> DispatchEvent(
      ::fidl::IncomingMessage& msg,
      ::fidl::internal::IncomingTransportContext transport_context) override;
};

// Methods to make a sync FIDL call directly on an unowned handle or a
// const reference to a
// |fidl::ClientEnd<::test_transitivedependenciescompose::Top>|, avoiding
// setting up a client.
template <>
class ::fidl::internal::WireSyncClientImpl<
    ::test_transitivedependenciescompose::Top>
    final : public ::fidl::internal::SyncEndpointManagedVeneer<
                ::fidl::internal::WireSyncClientImpl<
                    ::test_transitivedependenciescompose::Top>> {
 public:
  // Allocates 40 bytes of message buffer on the stack. No heap allocation
  // necessary.
  ::fidl::WireResult<::test_transitivedependenciescompose::Top::GetFoo>
  GetFoo() {
    ::fidl::internal::TransactionalRequest<
        ::test_transitivedependenciescompose::Top::GetFoo>
        _request{};
    return ::fidl::WireResult<
        ::test_transitivedependenciescompose::Top::GetFoo>(_client_end(),
                                                           &_request);
  }

 private:
  ::fidl::UnownedClientEnd<::test_transitivedependenciescompose::Top>
  _client_end() const {
    return ::fidl::UnownedClientEnd<::test_transitivedependenciescompose::Top>(
        _transport().get<::fidl::internal::ChannelTransport>());
  }
};

template <>
class ::fidl::internal::WireSyncBufferClientImpl<
    ::test_transitivedependenciescompose::Top>
    final : public ::fidl::internal::SyncEndpointBufferVeneer<
                ::fidl::internal::WireSyncBufferClientImpl<
                    ::test_transitivedependenciescompose::Top>> {
 public:
  // Caller provides the backing storage for FIDL message via an argument to
  // `.buffer()`.
  ::fidl::WireUnownedResult<::test_transitivedependenciescompose::Top::GetFoo>
  GetFoo() {
    ::fidl::internal::TransactionalRequest<
        ::test_transitivedependenciescompose::Top::GetFoo>
        _request{};
    return ::fidl::WireUnownedResult<
        ::test_transitivedependenciescompose::Top::GetFoo>(
        _client_end(), _allocator(), &_request);
  }

 private:
  ::fidl::UnownedClientEnd<::test_transitivedependenciescompose::Top>
  _client_end() const {
    return ::fidl::UnownedClientEnd<::test_transitivedependenciescompose::Top>(
        _transport().get<::fidl::internal::ChannelTransport>());
  }
};

template <>
class ::fidl::internal::WireCompleterImpl<
    ::test_transitivedependenciescompose::Top::GetFoo>
    : public ::fidl::internal::CompleterImplBase<
          ::test_transitivedependenciescompose::Top::GetFoo> {
 public:
  using CompleterImplBase::CompleterImplBase;

  void Reply(const ::test_bottom::wire::Foo& foo);
};

template <>
class ::fidl::internal::WireBufferCompleterImpl<
    ::test_transitivedependenciescompose::Top::GetFoo>
    : public ::fidl::internal::BufferCompleterImplBase {
 public:
  using BufferCompleterImplBase::BufferCompleterImplBase;

  void Reply(const ::test_bottom::wire::Foo& foo);
};

template <>
class ::fidl::internal::WireCompleterBase<
    ::test_transitivedependenciescompose::Top::GetFoo>
    : public ::fidl::CompleterBase,
      public ::fidl::internal::WireCompleterImpl<
          ::test_transitivedependenciescompose::Top::GetFoo> {
 public:
  WireCompleterBase(::fidl::Transaction* transaction, bool owned,
                    bool expects_reply)
      : CompleterBase(transaction, owned, expects_reply),
        WireCompleterImpl(this) {}
  WireCompleterBase(WireCompleterBase&& other) noexcept
      : CompleterBase(std::move(other)), WireCompleterImpl(this) {}
  WireCompleterBase& operator=(WireCompleterBase&& other) noexcept {
    CompleterBase::operator=(std::move(other));
    WireCompleterImpl::_set_core(this);
    return *this;
  }
};

// Pure-virtual interface to be implemented by a server.
// This interface uses typed channels (i.e. |fidl::ClientEnd<SomeProtocol>|
// and |fidl::ServerEnd<SomeProtocol>|).
template <>
class ::fidl::WireServer<::test_transitivedependenciescompose::Top>
    : public ::fidl::internal::IncomingMessageDispatcher {
 public:
  WireServer() = default;
  virtual ~WireServer() = default;

  // The FIDL protocol type that is implemented by this server.
  using _EnclosingProtocol = ::test_transitivedependenciescompose::Top;

  using GetFooCompleter = ::fidl::internal::WireCompleter<
      ::test_transitivedependenciescompose::Top::GetFoo>;
  using GetFooRequestView = ::fidl::internal::WireRequestView<
      ::test_transitivedependenciescompose::Top::GetFoo>;

  virtual void GetFoo(GetFooRequestView request,
                      GetFooCompleter::Sync& _completer) = 0;

 private:
  void dispatch_message(
      ::fidl::IncomingMessage&& msg, ::fidl::Transaction* txn,
      ::fidl::internal::IncomingTransportContext transport_context) final;
};
namespace test_transitivedependenciescompose {
#endif  // __Fuchsia__

}  // namespace test_transitivedependenciescompose
namespace fidl {

#ifdef __Fuchsia__
}  // namespace fidl
template <>
class ::fidl::internal::WireWeakOnewayClientImpl<
    ::test_transitivedependenciescompose::Top>
    : public ::fidl::internal::ClientImplBase {
 public:
  using ClientImplBase::ClientImplBase;
};

template <>
class ::fidl::internal::WireWeakAsyncClientImpl<
    ::test_transitivedependenciescompose::Top>
    final : public ::fidl::internal::WireWeakOnewayClientImpl<
                ::test_transitivedependenciescompose::Top> {
 public:
  using WireWeakOnewayClientImpl::WireWeakOnewayClientImpl;
  // Allocates 16 bytes of request buffer on the stack. The callback is stored
  // on the heap.
  ::fidl::internal::WireThenable<
      ::test_transitivedependenciescompose::Top::GetFoo>
  GetFoo();
};

template <>
class ::fidl::internal::WireWeakOnewayBufferClientImpl<
    ::test_transitivedependenciescompose::Top>
    : public ::fidl::internal::BufferClientImplBase {
 public:
  using BufferClientImplBase::BufferClientImplBase;
};

template <>
class ::fidl::internal::WireWeakAsyncBufferClientImpl<
    ::test_transitivedependenciescompose::Top>
    final : public ::fidl::internal::WireWeakOnewayBufferClientImpl<
                ::test_transitivedependenciescompose::Top> {
 public:
  using WireWeakOnewayBufferClientImpl::WireWeakOnewayBufferClientImpl;

  // Caller provides the backing storage for FIDL message.
  ::fidl::internal::WireBufferThenable<
      ::test_transitivedependenciescompose::Top::GetFoo>
  GetFoo();
};
template <>
class ::fidl::internal::WireWeakSyncClientImpl<
    ::test_transitivedependenciescompose::Top>
    final : public ::fidl::internal::WireWeakOnewayClientImpl<
                ::test_transitivedependenciescompose::Top> {
 public:
  using WireWeakOnewayClientImpl::WireWeakOnewayClientImpl;

  // Allocates 40 bytes of message buffer on the stack. No heap allocation
  // necessary.
  ::fidl::WireResult<::test_transitivedependenciescompose::Top::GetFoo>
  GetFoo();
};
namespace fidl {
#endif  // __Fuchsia__

}  // namespace fidl
#ifdef __Fuchsia__
template <>
class ::fidl::internal::WireWeakEventSender<
    ::test_transitivedependenciescompose::Top>
    : public ::fidl::internal::WeakEventSenderBase {
 public:
  using WeakEventSenderBase::WeakEventSenderBase;
};

template <>
class ::fidl::internal::WireWeakBufferEventSender<
    ::test_transitivedependenciescompose::Top>
    : public ::fidl::internal::WeakBufferEventSenderBase {
 public:
  using WeakBufferEventSenderBase::WeakBufferEventSenderBase;
};

template <>
class ::fidl::internal::WireEventSender<
    ::test_transitivedependenciescompose::Top>
    : public ::fidl::internal::SyncEndpointManagedVeneer<
          ::fidl::internal::WireEventSender<
              ::test_transitivedependenciescompose::Top>> {
 public:
  using SyncEndpointManagedVeneer::SyncEndpointManagedVeneer;
};

template <>
class ::fidl::internal::WireBufferEventSender<
    ::test_transitivedependenciescompose::Top>
    : public ::fidl::internal::SyncEndpointBufferVeneer<
          ::fidl::internal::WireBufferEventSender<
              ::test_transitivedependenciescompose::Top>> {
 public:
  using SyncEndpointBufferVeneer::SyncEndpointBufferVeneer;
};
#endif  // __Fuchsia__
